[gd_resource type="StyleBoxTexture" load_steps=2 format=2]

[ext_resource path="res://addons/nframework/assets/themes/scroll-grabber.tres" type="Texture" id=1]

[resource]
texture = ExtResource( 1 )
region_rect = Rect2( 0, 0, 12, 12 )
margin_top = 4.0
margin_bottom = 4.0
expand_margin_top = 3.0
expand_margin_bottom = 3.0
