[gd_scene load_steps=3 format=2]

[sub_resource type="StyleBoxFlat" id=1]
bg_color = Color( 0.133333, 0.133333, 0.133333, 1 )

[sub_resource type="StyleBoxFlat" id=2]
bg_color = Color( 0.6, 0.6, 0.6, 0 )
border_width_left = 1
border_width_top = 1
border_width_right = 1
border_width_bottom = 1
border_color = Color( 1, 1, 1, 1 )

[node name="ControlBind" type="HBoxContainer"]
margin_right = 183.0
margin_bottom = 20.0

[node name="Action" type="Label" parent="."]
margin_top = 3.0
margin_right = 89.0
margin_bottom = 17.0
size_flags_horizontal = 3
text = "Left: "

[node name="Main" type="PanelContainer" parent="."]
margin_left = 93.0
margin_right = 183.0
margin_bottom = 20.0
size_flags_horizontal = 3
size_flags_vertical = 3
custom_styles/panel = SubResource( 1 )

[node name="Rebind" type="Button" parent="Main"]
margin_right = 90.0
margin_bottom = 20.0
custom_styles/focus = SubResource( 2 )
text = "Left"
flat = true
__meta__ = {
"_edit_use_anchors_": false
}

[node name="Alt" type="PanelContainer" parent="."]
visible = false
margin_left = 124.0
margin_right = 183.0
margin_bottom = 20.0
size_flags_horizontal = 3
size_flags_vertical = 3
custom_styles/panel = SubResource( 1 )

[node name="Rebind" type="Button" parent="Alt"]
margin_right = 59.0
margin_bottom = 20.0
text = "Left"
flat = true
__meta__ = {
"_edit_use_anchors_": false
}
